{
  "photos":
  [


    {
      "src": "resources/images/covid.jpg",
      "title": "Korona",
      "description": "Dostal som COVID skôr než on mňa"
    },
    {
      "src": "resources/images/ronaldo.jpg",
      "title": "Cristiano Ronaldo",
      "description": "Ja s Cristianom Ronaldom tesne predtým ako prehral s Barcelonou"
    },
    {
      "src": "resources/images/dalajlama.jpg",
      "title": "Dalajláma",
      "description": "Aktuálny Dalajláma, Tändzin Gjamccho, u mňa na návšteve"
    },
    {
      "src": "resources/images/moon.jpg",
      "title": "Pristátie na Mesiaci",
      "description": "Ja v Hollywoode na natáčaní pristátia na Mesiaci"
    },
    {
    "src": "resources/images/muscles.jpg",
    "title": "Flex",
    "description": "Ja po slabšom tréningu vo fitku"
  },
    {
      "src": "resources/images/trump.jpg",
      "title": "Trump",
      "description": "Stretnutie s americkým prezidentom na medzinárodnom summite"
    },
    {
      "src": "resources/images/monalisa.jpg",
      "title": "Da Vinciho dokonalé dielo",
      "description": "Niektorí tvrdia, že nikto nezachytil tak autentický úsmev ako to urobil Da Vinci na svojom legendárnom diele"
    }
  ]
}